{
    "client": {
        "host": ""
    },
    "server": {
        "current_time": "",
        "services" : [{
            "name": "Facebook",
            "actions": [{
                "name": "new_post",
                "description": "A new post is posted by the user"
            }, {
                "name": "new_picture_of_user",
                "description": "A new picture of the user has been posted"
            }, {
                "name": "new_picture_from_the_ser",
                "description": "The user posted a new picture"
            }]
        }, {
            "name": "Spotify",
            "reactions": [{
                "name": "next_track",
                "description": "The user change for the next track"
            }, {
                "name": "pause",
                "description": "The user pause the track"
                }]
        }, {
            "name": "Imgur",
            "actions": [{
                "name": "new_fav",
                "description": "The user fav a new image"
            }, {
                "name": "new_comm",
                "description": "The new user posted a new comm"
            }, {
                "name": "new_image",
                "description": "The user posted a new image"
            }]
        }, {
            "name": "Steam",
            "actions": [{
                "name": "Last_log_off",
                "description": "Get the last log of the user"
            }]
        }, {
            "name": "GitLab",
            "actions": [{
                "name": "Update_commit",
                "description": "The user did a commit"
            }]
        }, {
            "name": "Microsoft"
        }]
    }
}